module gitlab.com/skllzz/multiop

go 1.21

require (
	go.uber.org/zap v1.26.0
	golang.org/x/sync v0.5.0
)

require (
	go.uber.org/atomic v1.11.0 // indirect
	go.uber.org/multierr v1.11.0 // indirect
)
